%YAML 1.1
%TAG !u! tag:unity3d.com,2011:
--- !u!1 &1000010390738104
GameObject:
  m_ObjectHideFlags: 0
  m_CorrespondingSourceObject: {fileID: 0}
  m_PrefabInstance: {fileID: 0}
  m_PrefabAsset: {fileID: 0}
  serializedVersion: 6
  m_Component:
  - component: {fileID: 4000012333492518}
  - component: {fileID: 33000013778004306}
  - component: {fileID: 23000012103580876}
  m_Layer: 0
  m_Name: Desert_Obelisk_Stand
  m_TagString: Untagged
  m_Icon: {fileID: 0}
  m_NavMeshLayer: 0
  m_StaticEditorFlags: 0
  m_IsActive: 1
--- !u!4 &4000012333492518
Transform:
  m_ObjectHideFlags: 0
  m_CorrespondingSourceObject: {fileID: 0}
  m_PrefabInstance: {fileID: 0}
  m_PrefabAsset: {fileID: 0}
  m_GameObject: {fileID: 1000010390738104}
  m_LocalRotation: {x: 0.000000021855694, y: 0, z: -0, w: 1}
  m_LocalPosition: {x: 0, y: 0, z: 0}
  m_LocalScale: {x: 1, y: 1, z: 1}
  m_Children:
  - {fileID: 744007328686735540}
  m_Father: {fileID: 0}
  m_RootOrder: 0
  m_LocalEulerAnglesHint: {x: 0, y: 0, z: 0}
--- !u!33 &33000013778004306
MeshFilter:
  m_ObjectHideFlags: 0
  m_CorrespondingSourceObject: {fileID: 0}
  m_PrefabInstance: {fileID: 0}
  m_PrefabAsset: {fileID: 0}
  m_GameObject: {fileID: 1000010390738104}
  m_Mesh: {fileID: 4300022, guid: 48dc4c6cddf48a943bf7251f1ba06c05, type: 3}
--- !u!23 &23000012103580876
MeshRenderer:
  m_ObjectHideFlags: 0
  m_CorrespondingSourceObject: {fileID: 0}
  m_PrefabInstance: {fileID: 0}
  m_PrefabAsset: {fileID: 0}
  m_GameObject: {fileID: 1000010390738104}
  m_Enabled: 1
  m_CastShadows: 1
  m_ReceiveShadows: 1
  m_DynamicOccludee: 1
  m_MotionVectors: 1
  m_LightProbeUsage: 1
  m_ReflectionProbeUsage: 1
  m_RayTracingMode: 2
  m_RayTraceProcedural: 0
  m_RenderingLayerMask: 1
  m_RendererPriority: 0
  m_Materials:
  - {fileID: 2100000, guid: 8e6c8d4e4f05fe44b8c2d2b569a5d1bb, type: 2}
  m_StaticBatchInfo:
    firstSubMesh: 0
    subMeshCount: 0
  m_StaticBatchRoot: {fileID: 0}
  m_ProbeAnchor: {fileID: 0}
  m_LightProbeVolumeOverride: {fileID: 0}
  m_ScaleInLightmap: 1
  m_ReceiveGI: 1
  m_PreserveUVs: 0
  m_IgnoreNormalsForChartDetection: 0
  m_ImportantGI: 0
  m_StitchLightmapSeams: 1
  m_SelectedEditorRenderState: 3
  m_MinimumChartSize: 4
  m_AutoUVMaxDistance: 0.5
  m_AutoUVMaxAngle: 89
  m_LightmapParameters: {fileID: 0}
  m_SortingLayerID: 0
  m_SortingLayer: 0
  m_SortingOrder: 0
  m_AdditionalVertexStreams: {fileID: 0}
--- !u!1001 &6891824014459763020
PrefabInstance:
  m_ObjectHideFlags: 0
  serializedVersion: 2
  m_Modification:
    m_TransformParent: {fileID: 4000012333492518}
    m_Modifications:
    - target: {fileID: 6194582351294003704, guid: 20d1a925ab1a84b4881c253bf4a32c09, type: 3}
      propertyPath: m_RootOrder
      value: 0
      objectReference: {fileID: 0}
    - target: {fileID: 6194582351294003704, guid: 20d1a925ab1a84b4881c253bf4a32c09, type: 3}
      propertyPath: m_LocalPosition.x
      value: 0.7
      objectReference: {fileID: 0}
    - target: {fileID: 6194582351294003704, guid: 20d1a925ab1a84b4881c253bf4a32c09, type: 3}
      propertyPath: m_LocalPosition.y
      value: 9.24
      objectReference: {fileID: 0}
    - target: {fileID: 6194582351294003704, guid: 20d1a925ab1a84b4881c253bf4a32c09, type: 3}
      propertyPath: m_LocalPosition.z
      value: -2.39
      objectReference: {fileID: 0}
    - target: {fileID: 6194582351294003704, guid: 20d1a925ab1a84b4881c253bf4a32c09, type: 3}
      propertyPath: m_LocalRotation.w
      value: 0.5
      objectReference: {fileID: 0}
    - target: {fileID: 6194582351294003704, guid: 20d1a925ab1a84b4881c253bf4a32c09, type: 3}
      propertyPath: m_LocalRotation.x
      value: 0.5
      objectReference: {fileID: 0}
    - target: {fileID: 6194582351294003704, guid: 20d1a925ab1a84b4881c253bf4a32c09, type: 3}
      propertyPath: m_LocalRotation.y
      value: 0.5
      objectReference: {fileID: 0}
    - target: {fileID: 6194582351294003704, guid: 20d1a925ab1a84b4881c253bf4a32c09, type: 3}
      propertyPath: m_LocalRotation.z
      value: 0.5
      objectReference: {fileID: 0}
    - target: {fileID: 6194582351294003704, guid: 20d1a925ab1a84b4881c253bf4a32c09, type: 3}
      propertyPath: m_LocalEulerAnglesHint.x
      value: 0
      objectReference: {fileID: 0}
    - target: {fileID: 6194582351294003704, guid: 20d1a925ab1a84b4881c253bf4a32c09, type: 3}
      propertyPath: m_LocalEulerAnglesHint.y
      value: 90
      objectReference: {fileID: 0}
    - target: {fileID: 6194582351294003704, guid: 20d1a925ab1a84b4881c253bf4a32c09, type: 3}
      propertyPath: m_LocalEulerAnglesHint.z
      value: 90
      objectReference: {fileID: 0}
    - target: {fileID: 8253280251575300542, guid: 20d1a925ab1a84b4881c253bf4a32c09, type: 3}
      propertyPath: m_Name
      value: LED_Tube
      objectReference: {fileID: 0}
    m_RemovedComponents: []
  m_SourcePrefab: {fileID: 100100000, guid: 20d1a925ab1a84b4881c253bf4a32c09, type: 3}
--- !u!4 &744007328686735540 stripped
Transform:
  m_CorrespondingSourceObject: {fileID: 6194582351294003704, guid: 20d1a925ab1a84b4881c253bf4a32c09, type: 3}
  m_PrefabInstance: {fileID: 6891824014459763020}
  m_PrefabAsset: {fileID: 0}
